{
    "site_title": "OK Pest Control - מדבירים בבטיחות, מקצועיות ויעילות את כל סוגי המזיקים",
    "header_title":"מדבירים בבטיחות, מקצועיות ויעילות את כל סוגי המזיקים",
    "licence":"ייעוץ טלפוני חינם",
    "number":"0528164666",
    "send":"שלח טופס",
    "form_title":"להזמנת שירות ובירורים מלאו את הטופס או התקשרו",
    "identifier":"בעלי רשיון משרד לאיכות הסביבה",
    "copyright": "Designed and developed by<a href=\"http://www.way2cu.com\">Way2CU.</a><br> All rights reserved."
}
